^nashit.asm
c:\Users\Nashit\documents\visual studio 2015\Projects\K200274\K200274\Debug\nashit.obj
^nashit.asm
c:\Users\Nashit\documents\visual studio 2015\Projects\K200274\K200274\Debug\nashit.obj
^nashit.asm
C:\Users\Nashit\documents\visual studio 2015\Projects\K200274\K200274\Debug\nashit.obj
^nashit.asm
C:\Users\Nashit\documents\visual studio 2015\Projects\K200274\K200274\Debug\nashit.obj
^nashit.asm
C:\Users\Nashit\documents\visual studio 2015\Projects\K200274\K200274\Debug\nashit.obj
^nashit.asm
C:\Users\Nashit\documents\visual studio 2015\Projects\K200274\K200274\Debug\nashit.obj
^nashit.asm
C:\Users\Nashit\documents\visual studio 2015\Projects\K200274\K200274\Debug\nashit.obj
^nashit.asm
C:\Users\Nashit\documents\visual studio 2015\Projects\K200274\K200274\Debug\nashit.obj
^nashit.asm
C:\Users\Nashit\documents\visual studio 2015\Projects\K200274\K200274\Debug\nashit.obj
^nashit.asm
C:\Users\Nashit\documents\visual studio 2015\Projects\K200274\K200274\Debug\nashit.obj
^nashit.asm
C:\Users\Nashit\documents\visual studio 2015\Projects\K200274\K200274\Debug\nashit.obj
^hello.asm
C:\Users\Nashit\documents\visual studio 2015\Projects\K200274\K200274\Debug\hello.obj
^nashit.asm
C:\Users\Nashit\documents\visual studio 2015\Projects\K200274\K200274\Debug\nashit.obj
^hello.asm
C:\Users\Nashit\documents\visual studio 2015\Projects\K200274\K200274\Debug\hello.obj
^hello.asm
C:\Users\Nashit\documents\visual studio 2015\Projects\K200274\K200274\Debug\hello.obj
^hello.asm
C:\Users\Nashit\documents\visual studio 2015\Projects\K200274\K200274\Debug\hello.obj
^hello.asm
C:\Users\Nashit\documents\visual studio 2015\Projects\K200274\K200274\Debug\hello.obj
^hello.asm
C:\Users\Nashit\documents\visual studio 2015\Projects\K200274\K200274\Debug\hello.obj
^hello.asm
C:\Users\Nashit\documents\visual studio 2015\Projects\K200274\K200274\Debug\hello.obj
^hello.asm
C:\Users\Nashit\documents\visual studio 2015\Projects\K200274\K200274\Debug\hello.obj
^hello.asm
C:\Users\Nashit\documents\visual studio 2015\Projects\K200274\K200274\Debug\hello.obj
^hello.asm
C:\Users\Nashit\documents\visual studio 2015\Projects\K200274\K200274\Debug\hello.obj
^nashit.asm
C:\Users\Nashit\documents\visual studio 2015\Projects\K200274\K200274\Debug\nashit.obj
^nashit.asm
C:\Users\Nashit\documents\visual studio 2015\Projects\K200274\K200274\Debug\nashit.obj
^nashit.asm
C:\Users\Nashit\documents\visual studio 2015\Projects\K200274\K200274\Debug\nashit.obj
^hello.asm
C:\Users\Nashit\documents\visual studio 2015\Projects\K200274\K200274\Debug\hello.obj
^hello.asm
C:\Users\Nashit\documents\visual studio 2015\Projects\K200274\K200274\Debug\hello.obj
^hello.asm
C:\Users\Nashit\documents\visual studio 2015\Projects\K200274\K200274\Debug\hello.obj
^hello.asm
C:\Users\Nashit\documents\visual studio 2015\Projects\K200274\K200274\Debug\hello.obj
^hello.asm
C:\Users\Nashit\documents\visual studio 2015\Projects\K200274\K200274\Debug\hello.obj
^hello.asm
C:\Users\Nashit\documents\visual studio 2015\Projects\K200274\K200274\Debug\hello.obj
^hello.asm
C:\Users\Nashit\documents\visual studio 2015\Projects\K200274\K200274\Debug\hello.obj
^hello.asm
C:\Users\Nashit\documents\visual studio 2015\Projects\K200274\K200274\Debug\hello.obj
^hello.asm
C:\Users\Nashit\documents\visual studio 2015\Projects\K200274\K200274\Debug\hello.obj
^hello.asm
C:\Users\Nashit\documents\visual studio 2015\Projects\K200274\K200274\Debug\hello.obj
^hello.asm
C:\Users\Nashit\documents\visual studio 2015\Projects\K200274\K200274\Debug\hello.obj
^hello.asm
C:\Users\Nashit\documents\visual studio 2015\Projects\K200274\K200274\Debug\hello.obj
^hello.asm
C:\Users\Nashit\documents\visual studio 2015\Projects\K200274\K200274\Debug\hello.obj
^hello.asm
C:\Users\Nashit\documents\visual studio 2015\Projects\K200274\K200274\Debug\hello.obj
^hello.asm
C:\Users\Nashit\documents\visual studio 2015\Projects\K200274\K200274\Debug\hello.obj
^hello.asm
C:\Users\Nashit\documents\visual studio 2015\Projects\K200274\K200274\Debug\hello.obj
^hello.asm
C:\Users\Nashit\documents\visual studio 2015\Projects\K200274\K200274\Debug\hello.obj
^hello.asm
C:\Users\Nashit\documents\visual studio 2015\Projects\K200274\K200274\Debug\hello.obj
^hello.asm
C:\Users\Nashit\documents\visual studio 2015\Projects\K200274\K200274\Debug\hello.obj
^hello.asm
C:\Users\Nashit\documents\visual studio 2015\Projects\K200274\K200274\Debug\hello.obj
^hello.asm
C:\Users\Nashit\documents\visual studio 2015\Projects\K200274\K200274\Debug\hello.obj
^hello.asm
C:\Users\Nashit\documents\visual studio 2015\Projects\K200274\K200274\Debug\hello.obj
^hello.asm
C:\Users\Nashit\documents\visual studio 2015\Projects\K200274\K200274\Debug\hello.obj
^hello.asm
C:\Users\Nashit\documents\visual studio 2015\Projects\K200274\K200274\Debug\hello.obj
^hello.asm
C:\Users\Nashit\documents\visual studio 2015\Projects\K200274\K200274\Debug\hello.obj
^hello.asm
C:\Users\Nashit\documents\visual studio 2015\Projects\K200274\K200274\Debug\hello.obj
^hello.asm
C:\Users\Nashit\documents\visual studio 2015\Projects\K200274\K200274\Debug\hello.obj
^hello.asm
C:\Users\Nashit\documents\visual studio 2015\Projects\K200274\K200274\Debug\hello.obj
^hello.asm
C:\Users\Nashit\documents\visual studio 2015\Projects\K200274\K200274\Debug\hello.obj
^hello.asm
C:\Users\Nashit\documents\visual studio 2015\Projects\K200274\K200274\Debug\hello.obj
^hello.asm
C:\Users\Nashit\documents\visual studio 2015\Projects\K200274\K200274\Debug\hello.obj
^hello.asm
C:\Users\Nashit\documents\visual studio 2015\Projects\K200274\K200274\Debug\hello.obj
^hello.asm
C:\Users\Nashit\documents\visual studio 2015\Projects\K200274\K200274\Debug\hello.obj
^hello.asm
C:\Users\Nashit\documents\visual studio 2015\Projects\K200274\K200274\Debug\hello.obj
^hello.asm
C:\Users\Nashit\documents\visual studio 2015\Projects\K200274\K200274\Debug\hello.obj
^hello.asm
C:\Users\Nashit\documents\visual studio 2015\Projects\K200274\K200274\Debug\hello.obj
^hello.asm
C:\Users\Nashit\documents\visual studio 2015\Projects\K200274\K200274\Debug\hello.obj
^hello.asm
C:\Users\Nashit\documents\visual studio 2015\Projects\K200274\K200274\Debug\hello.obj
^hello.asm
C:\Users\Nashit\documents\visual studio 2015\Projects\K200274\K200274\Debug\hello.obj
^hello.asm
C:\Users\Nashit\documents\visual studio 2015\Projects\K200274\K200274\Debug\hello.obj
^hello.asm
C:\Users\Nashit\documents\visual studio 2015\Projects\K200274\K200274\Debug\hello.obj
^hello.asm
C:\Users\Nashit\documents\visual studio 2015\Projects\K200274\K200274\Debug\hello.obj
^hello.asm
C:\Users\Nashit\documents\visual studio 2015\Projects\K200274\K200274\Debug\hello.obj
^hello.asm
C:\Users\Nashit\documents\visual studio 2015\Projects\K200274\K200274\Debug\hello.obj
^hello.asm
C:\Users\Nashit\documents\visual studio 2015\Projects\K200274\K200274\Debug\hello.obj
^hello.asm
C:\Users\Nashit\documents\visual studio 2015\Projects\K200274\K200274\Debug\hello.obj
^hello.asm
C:\Users\Nashit\documents\visual studio 2015\Projects\K200274\K200274\Debug\hello.obj
^hello.asm
C:\Users\Nashit\documents\visual studio 2015\Projects\K200274\K200274\Debug\hello.obj
^hello.asm
C:\Users\Nashit\documents\visual studio 2015\Projects\K200274\K200274\Debug\hello.obj
^hello.asm
C:\Users\Nashit\documents\visual studio 2015\Projects\K200274\K200274\Debug\hello.obj
^hello.asm
C:\Users\Nashit\documents\visual studio 2015\Projects\K200274\K200274\Debug\hello.obj
^hello.asm
C:\Users\Nashit\documents\visual studio 2015\Projects\K200274\K200274\Debug\hello.obj
^hello.asm
C:\Users\Nashit\documents\visual studio 2015\Projects\K200274\K200274\Debug\hello.obj
^hello.asm
C:\Users\Nashit\documents\visual studio 2015\Projects\K200274\K200274\Debug\hello.obj
^hello.asm
C:\Users\Nashit\documents\visual studio 2015\Projects\K200274\K200274\Debug\hello.obj
^hello.asm
C:\Users\Nashit\documents\visual studio 2015\Projects\K200274\K200274\Debug\hello.obj
^hello.asm
C:\Users\Nashit\documents\visual studio 2015\Projects\K200274\K200274\Debug\hello.obj
^hello.asm
C:\Users\Nashit\documents\visual studio 2015\Projects\K200274\K200274\Debug\hello.obj
^hello.asm
C:\Users\Nashit\documents\visual studio 2015\Projects\K200274\K200274\Debug\hello.obj
^hello.asm
C:\Users\Nashit\documents\visual studio 2015\Projects\K200274\K200274\Debug\hello.obj
^hello.asm
C:\Users\Nashit\documents\visual studio 2015\Projects\K200274\K200274\Debug\hello.obj
^hello.asm
C:\Users\Nashit\documents\visual studio 2015\Projects\K200274\K200274\Debug\hello.obj
^hello.asm
C:\Users\Nashit\documents\visual studio 2015\Projects\K200274\K200274\Debug\hello.obj
^hello.asm
C:\Users\Nashit\documents\visual studio 2015\Projects\K200274\K200274\Debug\hello.obj
^hello.asm
C:\Users\Nashit\documents\visual studio 2015\Projects\K200274\K200274\Debug\hello.obj
^hello.asm
C:\Users\Nashit\documents\visual studio 2015\Projects\K200274\K200274\Debug\hello.obj
^hello.asm
C:\Users\Nashit\documents\visual studio 2015\Projects\K200274\K200274\Debug\hello.obj
^hello.asm
C:\Users\Nashit\documents\visual studio 2015\Projects\K200274\K200274\Debug\hello.obj
^hello.asm
C:\Users\Nashit\documents\visual studio 2015\Projects\K200274\K200274\Debug\hello.obj
^hello.asm
C:\Users\Nashit\documents\visual studio 2015\Projects\K200274\K200274\Debug\hello.obj
^hello.asm
C:\Users\Nashit\documents\visual studio 2015\Projects\K200274\K200274\Debug\hello.obj
^hello.asm
C:\Users\Nashit\documents\visual studio 2015\Projects\K200274\K200274\Debug\hello.obj
^hello.asm
C:\Users\Nashit\documents\visual studio 2015\Projects\K200274\K200274\Debug\hello.obj
^hello.asm
C:\Users\Nashit\documents\visual studio 2015\Projects\K200274\K200274\Debug\hello.obj
^hello.asm
C:\Users\Nashit\documents\visual studio 2015\Projects\K200274\K200274\Debug\hello.obj
^hello.asm
C:\Users\Nashit\documents\visual studio 2015\Projects\K200274\K200274\Debug\hello.obj
^hello.asm
C:\Users\Nashit\documents\visual studio 2015\Projects\K200274\K200274\Debug\hello.obj
^hello.asm
C:\Users\Nashit\documents\visual studio 2015\Projects\K200274\K200274\Debug\hello.obj
^hello.asm
C:\Users\Nashit\documents\visual studio 2015\Projects\K200274\K200274\Debug\hello.obj
^hello.asm
C:\Users\Nashit\documents\visual studio 2015\Projects\K200274\K200274\Debug\hello.obj
^hello.asm
C:\Users\Nashit\documents\visual studio 2015\Projects\K200274\K200274\Debug\hello.obj
^hello.asm
C:\Users\Nashit\documents\visual studio 2015\Projects\K200274\K200274\Debug\hello.obj
^hello.asm
C:\Users\Nashit\documents\visual studio 2015\Projects\K200274\K200274\Debug\hello.obj
^hello.asm
C:\Users\Nashit\documents\visual studio 2015\Projects\K200274\K200274\Debug\hello.obj
^hello.asm
C:\Users\Nashit\documents\visual studio 2015\Projects\K200274\K200274\Debug\hello.obj
^hello.asm
C:\Users\Nashit\documents\visual studio 2015\Projects\K200274\K200274\Debug\hello.obj
^hello.asm
C:\Users\Nashit\documents\visual studio 2015\Projects\K200274\K200274\Debug\hello.obj
^hello.asm
C:\Users\Nashit\documents\visual studio 2015\Projects\K200274\K200274\Debug\hello.obj
^hello.asm
C:\Users\Nashit\documents\visual studio 2015\Projects\K200274\K200274\Debug\hello.obj
^hello.asm
C:\Users\Nashit\documents\visual studio 2015\Projects\K200274\K200274\Debug\hello.obj
^hello.asm
C:\Users\Nashit\documents\visual studio 2015\Projects\K200274\K200274\Debug\hello.obj
^hello.asm
C:\Users\Nashit\documents\visual studio 2015\Projects\K200274\K200274\Debug\hello.obj
^hello.asm
C:\Users\Nashit\documents\visual studio 2015\Projects\K200274\K200274\Debug\hello.obj
^hello.asm
C:\Users\Nashit\documents\visual studio 2015\Projects\K200274\K200274\Debug\hello.obj
^hello.asm
C:\Users\Nashit\documents\visual studio 2015\Projects\K200274\K200274\Debug\hello.obj
^master.asm
C:\Users\Nashit\documents\visual studio 2015\Projects\K200274\K200274\Debug\master.obj
^master.asm
C:\Users\Nashit\documents\visual studio 2015\Projects\K200274\K200274\Debug\master.obj
^master.asm
C:\Users\Nashit\documents\visual studio 2015\Projects\K200274\K200274\Debug\master.obj
^master.asm
C:\Users\Nashit\documents\visual studio 2015\Projects\K200274\K200274\Debug\master.obj
^master.asm
C:\Users\Nashit\documents\visual studio 2015\Projects\K200274\K200274\Debug\master.obj
^master.asm
C:\Users\Nashit\documents\visual studio 2015\Projects\K200274\K200274\Debug\master.obj
^master.asm
C:\Users\Nashit\documents\visual studio 2015\Projects\K200274\K200274\Debug\master.obj
^master.asm
C:\Users\Nashit\documents\visual studio 2015\Projects\K200274\K200274\Debug\master.obj
^master.asm
C:\Users\Nashit\documents\visual studio 2015\Projects\K200274\K200274\Debug\master.obj
^master.asm
C:\Users\Nashit\documents\visual studio 2015\Projects\K200274\K200274\Debug\master.obj
^master.asm
C:\Users\Nashit\documents\visual studio 2015\Projects\K200274\K200274\Debug\master.obj
^master.asm
C:\Users\Nashit\documents\visual studio 2015\Projects\K200274\K200274\Debug\master.obj
^master.asm
C:\Users\Nashit\documents\visual studio 2015\Projects\K200274\K200274\Debug\master.obj
^master.asm
C:\Users\Nashit\documents\visual studio 2015\Projects\K200274\K200274\Debug\master.obj
^master.asm
C:\Users\Nashit\documents\visual studio 2015\Projects\K200274\K200274\Debug\master.obj
^master.asm
C:\Users\Nashit\documents\visual studio 2015\Projects\K200274\K200274\Debug\master.obj
^master.asm
C:\Users\Nashit\documents\visual studio 2015\Projects\K200274\K200274\Debug\master.obj
^master.asm
C:\Users\Nashit\documents\visual studio 2015\Projects\K200274\K200274\Debug\master.obj
^master.asm
C:\Users\Nashit\documents\visual studio 2015\Projects\K200274\K200274\Debug\master.obj
^master.asm
C:\Users\Nashit\documents\visual studio 2015\Projects\K200274\K200274\Debug\master.obj
^master.asm
C:\Users\Nashit\documents\visual studio 2015\Projects\K200274\K200274\Debug\master.obj
^master.asm
C:\Users\Nashit\documents\visual studio 2015\Projects\K200274\K200274\Debug\master.obj
^master.asm
C:\Users\Nashit\documents\visual studio 2015\Projects\K200274\K200274\Debug\master.obj
^master.asm
C:\Users\Nashit\documents\visual studio 2015\Projects\K200274\K200274\Debug\master.obj
^master.asm
C:\Users\Nashit\documents\visual studio 2015\Projects\K200274\K200274\Debug\master.obj
^master.asm
C:\Users\Nashit\documents\visual studio 2015\Projects\K200274\K200274\Debug\master.obj
^master.asm
C:\Users\Nashit\documents\visual studio 2015\Projects\K200274\K200274\Debug\master.obj
^master.asm
C:\Users\Nashit\documents\visual studio 2015\Projects\K200274\K200274\Debug\master.obj
^master.asm
C:\Users\Nashit\documents\visual studio 2015\Projects\K200274\K200274\Debug\master.obj
^master.asm
C:\Users\Nashit\documents\visual studio 2015\Projects\K200274\K200274\Debug\master.obj
^master.asm
C:\Users\Nashit\documents\visual studio 2015\Projects\K200274\K200274\Debug\master.obj
^master.asm
C:\Users\Nashit\documents\visual studio 2015\Projects\K200274\K200274\Debug\master.obj
^master.asm
C:\Users\Nashit\documents\visual studio 2015\Projects\K200274\K200274\Debug\master.obj
^master.asm
C:\Users\Nashit\documents\visual studio 2015\Projects\K200274\K200274\Debug\master.obj
^master.asm
C:\Users\Nashit\documents\visual studio 2015\Projects\K200274\K200274\Debug\master.obj
^master.asm
C:\Users\Nashit\documents\visual studio 2015\Projects\K200274\K200274\Debug\master.obj
^master.asm
C:\Users\Nashit\documents\visual studio 2015\Projects\K200274\K200274\Debug\master.obj
^master.asm
C:\Users\Nashit\documents\visual studio 2015\Projects\K200274\K200274\Debug\master.obj
^master.asm
C:\Users\Nashit\documents\visual studio 2015\Projects\K200274\K200274\Debug\master.obj
^master.asm
C:\Users\Nashit\documents\visual studio 2015\Projects\K200274\K200274\Debug\master.obj
^master.asm
C:\Users\Nashit\documents\visual studio 2015\Projects\K200274\K200274\Debug\master.obj
^master.asm
C:\Users\Nashit\documents\visual studio 2015\Projects\K200274\K200274\Debug\master.obj
^master.asm
C:\Users\Nashit\documents\visual studio 2015\Projects\K200274\K200274\Debug\master.obj
^master.asm
C:\Users\Nashit\documents\visual studio 2015\Projects\K200274\K200274\Debug\master.obj
^master.asm
C:\Users\Nashit\documents\visual studio 2015\Projects\K200274\K200274\Debug\master.obj
^master.asm
C:\Users\Nashit\documents\visual studio 2015\Projects\K200274\K200274\Debug\master.obj
^master.asm
C:\Users\Nashit\documents\visual studio 2015\Projects\K200274\K200274\Debug\master.obj
^master.asm
C:\Users\Nashit\documents\visual studio 2015\Projects\K200274\K200274\Debug\master.obj
^master.asm
C:\Users\Nashit\documents\visual studio 2015\Projects\K200274\K200274\Debug\master.obj
^master.asm
C:\Users\Nashit\documents\visual studio 2015\Projects\K200274\K200274\Debug\master.obj
^master.asm
C:\Users\Nashit\documents\visual studio 2015\Projects\K200274\K200274\Debug\master.obj
^master.asm
C:\Users\Nashit\documents\visual studio 2015\Projects\K200274\K200274\Debug\master.obj
^master.asm
C:\Users\Nashit\documents\visual studio 2015\Projects\K200274\K200274\Debug\master.obj
^master.asm
C:\Users\Nashit\documents\visual studio 2015\Projects\K200274\K200274\Debug\master.obj
^master.asm
C:\Users\Nashit\documents\visual studio 2015\Projects\K200274\K200274\Debug\master.obj
^master.asm
C:\Users\Nashit\documents\visual studio 2015\Projects\K200274\K200274\Debug\master.obj
^master.asm
C:\Users\Nashit\documents\visual studio 2015\Projects\K200274\K200274\Debug\master.obj
^master.asm
C:\Users\Nashit\documents\visual studio 2015\Projects\K200274\K200274\Debug\master.obj
^master.asm
C:\Users\Nashit\documents\visual studio 2015\Projects\K200274\K200274\Debug\master.obj
^master.asm
C:\Users\Nashit\documents\visual studio 2015\Projects\K200274\K200274\Debug\master.obj
^master.asm
C:\Users\Nashit\documents\visual studio 2015\Projects\K200274\K200274\Debug\master.obj
^master.asm
C:\Users\Nashit\documents\visual studio 2015\Projects\K200274\K200274\Debug\master.obj
^master.asm
C:\Users\Nashit\documents\visual studio 2015\Projects\K200274\K200274\Debug\master.obj
^master.asm
C:\Users\Nashit\documents\visual studio 2015\Projects\K200274\K200274\Debug\master.obj
^master.asm
C:\Users\Nashit\documents\visual studio 2015\Projects\K200274\K200274\Debug\master.obj
^master.asm
C:\Users\Nashit\documents\visual studio 2015\Projects\K200274\K200274\Debug\master.obj
^master.asm
C:\Users\Nashit\documents\visual studio 2015\Projects\K200274\K200274\Debug\master.obj
^master.asm
C:\Users\Nashit\documents\visual studio 2015\Projects\K200274\K200274\Debug\master.obj
^master.asm
C:\Users\Nashit\documents\visual studio 2015\Projects\K200274\K200274\Debug\master.obj
^master.asm
C:\Users\Nashit\documents\visual studio 2015\Projects\K200274\K200274\Debug\master.obj
^master.asm
C:\Users\Nashit\documents\visual studio 2015\Projects\K200274\K200274\Debug\master.obj
^master.asm
C:\Users\Nashit\documents\visual studio 2015\Projects\K200274\K200274\Debug\master.obj
^master.asm
C:\Users\Nashit\documents\visual studio 2015\Projects\K200274\K200274\Debug\master.obj
^master.asm
C:\Users\Nashit\documents\visual studio 2015\Projects\K200274\K200274\Debug\master.obj
^master.asm
C:\Users\Nashit\documents\visual studio 2015\Projects\K200274\K200274\Debug\master.obj
^master.asm
C:\Users\Nashit\documents\visual studio 2015\Projects\K200274\K200274\Debug\master.obj
^master.asm
C:\Users\Nashit\documents\visual studio 2015\Projects\K200274\K200274\Debug\master.obj
^master.asm
C:\Users\Nashit\documents\visual studio 2015\Projects\K200274\K200274\Debug\master.obj
^master.asm
C:\Users\Nashit\documents\visual studio 2015\Projects\K200274\K200274\Debug\master.obj
^master.asm
C:\Users\Nashit\documents\visual studio 2015\Projects\K200274\K200274\Debug\master.obj
^master.asm
C:\Users\Nashit\documents\visual studio 2015\Projects\K200274\K200274\Debug\master.obj
^master.asm
C:\Users\Nashit\documents\visual studio 2015\Projects\K200274\K200274\Debug\master.obj
^master.asm
C:\Users\Nashit\documents\visual studio 2015\Projects\K200274\K200274\Debug\master.obj
^master.asm
C:\Users\Nashit\documents\visual studio 2015\Projects\K200274\K200274\Debug\master.obj
^master.asm
C:\Users\Nashit\documents\visual studio 2015\Projects\K200274\K200274\Debug\master.obj
^master.asm
C:\Users\Nashit\documents\visual studio 2015\Projects\K200274\K200274\Debug\master.obj
^master.asm
C:\Users\Nashit\documents\visual studio 2015\Projects\K200274\K200274\Debug\master.obj
^master.asm
C:\Users\Nashit\documents\visual studio 2015\Projects\K200274\K200274\Debug\master.obj
^master.asm
C:\Users\Nashit\documents\visual studio 2015\Projects\K200274\K200274\Debug\master.obj
^master.asm
C:\Users\Nashit\documents\visual studio 2015\Projects\K200274\K200274\Debug\master.obj
^master.asm
C:\Users\Nashit\documents\visual studio 2015\Projects\K200274\K200274\Debug\master.obj
^master.asm
C:\Users\Nashit\documents\visual studio 2015\Projects\K200274\K200274\Debug\master.obj
^master.asm
C:\Users\Nashit\documents\visual studio 2015\Projects\K200274\K200274\Debug\master.obj
^master.asm
C:\Users\Nashit\documents\visual studio 2015\Projects\K200274\K200274\Debug\master.obj
^master.asm
C:\Users\Nashit\documents\visual studio 2015\Projects\K200274\K200274\Debug\master.obj
^master.asm
C:\Users\Nashit\documents\visual studio 2015\Projects\K200274\K200274\Debug\master.obj
^master.asm
C:\Users\Nashit\documents\visual studio 2015\Projects\K200274\K200274\Debug\master.obj
^master.asm
C:\Users\Nashit\documents\visual studio 2015\Projects\K200274\K200274\Debug\master.obj
^master.asm
C:\Users\Nashit\documents\visual studio 2015\Projects\K200274\K200274\Debug\master.obj
^master.asm
C:\Users\Nashit\documents\visual studio 2015\Projects\K200274\K200274\Debug\master.obj
^master.asm
C:\Users\Nashit\documents\visual studio 2015\Projects\K200274\K200274\Debug\master.obj
^master.asm
C:\Users\Nashit\documents\visual studio 2015\Projects\K200274\K200274\Debug\master.obj
^master.asm
C:\Users\Nashit\documents\visual studio 2015\Projects\K200274\K200274\Debug\master.obj
^master.asm
C:\Users\Nashit\documents\visual studio 2015\Projects\K200274\K200274\Debug\master.obj
^master.asm
C:\Users\Nashit\documents\visual studio 2015\Projects\K200274\K200274\Debug\master.obj
^master.asm
C:\Users\Nashit\documents\visual studio 2015\Projects\K200274\K200274\Debug\master.obj
^master.asm
C:\Users\Nashit\documents\visual studio 2015\Projects\K200274\K200274\Debug\master.obj
^master.asm
C:\Users\Nashit\documents\visual studio 2015\Projects\K200274\K200274\Debug\master.obj
^master.asm
C:\Users\Nashit\documents\visual studio 2015\Projects\K200274\K200274\Debug\master.obj
^master.asm
C:\Users\Nashit\documents\visual studio 2015\Projects\K200274\K200274\Debug\master.obj
^master.asm
C:\Users\Nashit\documents\visual studio 2015\Projects\K200274\K200274\Debug\master.obj
^master.asm
C:\Users\Nashit\documents\visual studio 2015\Projects\K200274\K200274\Debug\master.obj
^master.asm
C:\Users\Nashit\documents\visual studio 2015\Projects\K200274\K200274\Debug\master.obj
^master.asm
C:\Users\Nashit\documents\visual studio 2015\Projects\K200274\K200274\Debug\master.obj
^master.asm
C:\Users\Nashit\documents\visual studio 2015\Projects\K200274\K200274\Debug\master.obj
^master.asm
C:\Users\Nashit\documents\visual studio 2015\Projects\K200274\K200274\Debug\master.obj
^master.asm
C:\Users\Nashit\documents\visual studio 2015\Projects\K200274\K200274\Debug\master.obj
^master.asm
C:\Users\Nashit\documents\visual studio 2015\Projects\K200274\K200274\Debug\master.obj
^master.asm
C:\Users\Nashit\documents\visual studio 2015\Projects\K200274\K200274\Debug\master.obj
^master.asm
C:\Users\Nashit\documents\visual studio 2015\Projects\K200274\K200274\Debug\master.obj
^master.asm
C:\Users\Nashit\documents\visual studio 2015\Projects\K200274\K200274\Debug\master.obj
^master.asm
C:\Users\Nashit\documents\visual studio 2015\Projects\K200274\K200274\Debug\master.obj
^master.asm
C:\Users\Nashit\documents\visual studio 2015\Projects\K200274\K200274\Debug\master.obj
^master.asm
C:\Users\Nashit\documents\visual studio 2015\Projects\K200274\K200274\Debug\master.obj
^master.asm
C:\Users\Nashit\documents\visual studio 2015\Projects\K200274\K200274\Debug\master.obj
^master.asm
C:\Users\Nashit\documents\visual studio 2015\Projects\K200274\K200274\Debug\master.obj
^master.asm
C:\Users\Nashit\documents\visual studio 2015\Projects\K200274\K200274\Debug\master.obj
^master.asm
C:\Users\Nashit\documents\visual studio 2015\Projects\K200274\K200274\Debug\master.obj
^master.asm
C:\Users\Nashit\documents\visual studio 2015\Projects\K200274\K200274\Debug\master.obj
^master.asm
C:\Users\Nashit\documents\visual studio 2015\Projects\K200274\K200274\Debug\master.obj
^master.asm
C:\Users\Nashit\documents\visual studio 2015\Projects\K200274\K200274\Debug\master.obj
^master.asm
C:\Users\Nashit\documents\visual studio 2015\Projects\K200274\K200274\Debug\master.obj
^master.asm
C:\Users\Nashit\documents\visual studio 2015\Projects\K200274\K200274\Debug\master.obj
^test.asm
C:\Users\Nashit\documents\visual studio 2015\Projects\K200274\K200274\Debug\test.obj
^test.asm
C:\Users\Nashit\documents\visual studio 2015\Projects\K200274\K200274\Debug\test.obj
^test.asm
C:\Users\Nashit\documents\visual studio 2015\Projects\K200274\K200274\Debug\test.obj
^test.asm
C:\Users\Nashit\documents\visual studio 2015\Projects\K200274\K200274\Debug\test.obj
^test.asm
C:\Users\Nashit\documents\visual studio 2015\Projects\K200274\K200274\Debug\test.obj
^test.asm
C:\Users\Nashit\documents\visual studio 2015\Projects\K200274\K200274\Debug\test.obj
^test.asm
C:\Users\Nashit\documents\visual studio 2015\Projects\K200274\K200274\Debug\test.obj
^test.asm
C:\Users\Nashit\documents\visual studio 2015\Projects\K200274\K200274\Debug\test.obj
^test.asm
C:\Users\Nashit\documents\visual studio 2015\Projects\K200274\K200274\Debug\test.obj
^test.asm
C:\Users\Nashit\documents\visual studio 2015\Projects\K200274\K200274\Debug\test.obj
^test.asm
C:\Users\Nashit\documents\visual studio 2015\Projects\K200274\K200274\Debug\test.obj
^test.asm
C:\Users\Nashit\documents\visual studio 2015\Projects\K200274\K200274\Debug\test.obj
^test.asm
C:\Users\Nashit\documents\visual studio 2015\Projects\K200274\K200274\Debug\test.obj
^test.asm
C:\Users\Nashit\documents\visual studio 2015\Projects\K200274\K200274\Debug\test.obj
^test.asm
C:\Users\Nashit\documents\visual studio 2015\Projects\K200274\K200274\Debug\test.obj
^test.asm
C:\Users\Nashit\documents\visual studio 2015\Projects\K200274\K200274\Debug\test.obj
^test.asm
C:\Users\Nashit\documents\visual studio 2015\Projects\K200274\K200274\Debug\test.obj
^test.asm
C:\Users\Nashit\documents\visual studio 2015\Projects\K200274\K200274\Debug\test.obj
^test.asm
C:\Users\Nashit\documents\visual studio 2015\Projects\K200274\K200274\Debug\test.obj
^test.asm
C:\Users\Nashit\documents\visual studio 2015\Projects\K200274\K200274\Debug\test.obj
^test.asm
C:\Users\Nashit\documents\visual studio 2015\Projects\K200274\K200274\Debug\test.obj
^test.asm
C:\Users\Nashit\documents\visual studio 2015\Projects\K200274\K200274\Debug\test.obj
^test.asm
C:\Users\Nashit\documents\visual studio 2015\Projects\K200274\K200274\Debug\test.obj
^test.asm
C:\Users\Nashit\documents\visual studio 2015\Projects\K200274\K200274\Debug\test.obj
^test.asm
C:\Users\Nashit\documents\visual studio 2015\Projects\K200274\K200274\Debug\test.obj
^test.asm
C:\Users\Nashit\documents\visual studio 2015\Projects\K200274\K200274\Debug\test.obj
^test.asm
C:\Users\Nashit\documents\visual studio 2015\Projects\K200274\K200274\Debug\test.obj
^test.asm
C:\Users\Nashit\documents\visual studio 2015\Projects\K200274\K200274\Debug\test.obj
^test.asm
C:\Users\Nashit\documents\visual studio 2015\Projects\K200274\K200274\Debug\test.obj
^test.asm
C:\Users\Nashit\documents\visual studio 2015\Projects\K200274\K200274\Debug\test.obj
^test.asm
C:\Users\Nashit\documents\visual studio 2015\Projects\K200274\K200274\Debug\test.obj
^test.asm
C:\Users\Nashit\documents\visual studio 2015\Projects\K200274\K200274\Debug\test.obj
^test.asm
C:\Users\Nashit\documents\visual studio 2015\Projects\K200274\K200274\Debug\test.obj
^test.asm
C:\Users\Nashit\documents\visual studio 2015\Projects\K200274\K200274\Debug\test.obj
^test.asm
C:\Users\Nashit\documents\visual studio 2015\Projects\K200274\K200274\Debug\test.obj
^test.asm
C:\Users\Nashit\documents\visual studio 2015\Projects\K200274\K200274\Debug\test.obj
^test.asm
C:\Users\Nashit\documents\visual studio 2015\Projects\K200274\K200274\Debug\test.obj
^test.asm
C:\Users\Nashit\documents\visual studio 2015\Projects\K200274\K200274\Debug\test.obj
^test.asm
C:\Users\Nashit\documents\visual studio 2015\Projects\K200274\K200274\Debug\test.obj
^test.asm
C:\Users\Nashit\documents\visual studio 2015\Projects\K200274\K200274\Debug\test.obj
^test.asm
C:\Users\Nashit\documents\visual studio 2015\Projects\K200274\K200274\Debug\test.obj
^test.asm
C:\Users\Nashit\documents\visual studio 2015\Projects\K200274\K200274\Debug\test.obj
^test.asm
C:\Users\Nashit\documents\visual studio 2015\Projects\K200274\K200274\Debug\test.obj
^test.asm
C:\Users\Nashit\documents\visual studio 2015\Projects\K200274\K200274\Debug\test.obj
^test.asm
C:\Users\Nashit\documents\visual studio 2015\Projects\K200274\K200274\Debug\test.obj
^test.asm
C:\Users\Nashit\documents\visual studio 2015\Projects\K200274\K200274\Debug\test.obj
^test.asm
C:\Users\Nashit\documents\visual studio 2015\Projects\K200274\K200274\Debug\test.obj
^test.asm
C:\Users\Nashit\documents\visual studio 2015\Projects\K200274\K200274\Debug\test.obj
^test.asm
C:\Users\Nashit\documents\visual studio 2015\Projects\K200274\K200274\Debug\test.obj
^test.asm
C:\Users\Nashit\documents\visual studio 2015\Projects\K200274\K200274\Debug\test.obj
^test.asm
C:\Users\Nashit\documents\visual studio 2015\Projects\K200274\K200274\Debug\test.obj
^test.asm
C:\Users\Nashit\documents\visual studio 2015\Projects\K200274\K200274\Debug\test.obj
^test.asm
C:\Users\Nashit\documents\visual studio 2015\Projects\K200274\K200274\Debug\test.obj
^test.asm
C:\Users\Nashit\documents\visual studio 2015\Projects\K200274\K200274\Debug\test.obj
^test.asm
C:\Users\Nashit\documents\visual studio 2015\Projects\K200274\K200274\Debug\test.obj
^test.asm
C:\Users\Nashit\documents\visual studio 2015\Projects\K200274\K200274\Debug\test.obj
^test.asm
C:\Users\Nashit\documents\visual studio 2015\Projects\K200274\K200274\Debug\test.obj
^test.asm
C:\Users\Nashit\documents\visual studio 2015\Projects\K200274\K200274\Debug\test.obj
^test.asm
C:\Users\Nashit\documents\visual studio 2015\Projects\K200274\K200274\Debug\test.obj
^test.asm
C:\Users\Nashit\documents\visual studio 2015\Projects\K200274\K200274\Debug\test.obj
^test.asm
C:\Users\Nashit\documents\visual studio 2015\Projects\K200274\K200274\Debug\test.obj
^test.asm
C:\Users\Nashit\documents\visual studio 2015\Projects\K200274\K200274\Debug\test.obj
^test.asm
C:\Users\Nashit\documents\visual studio 2015\Projects\K200274\K200274\Debug\test.obj
^test.asm
C:\Users\Nashit\documents\visual studio 2015\Projects\K200274\K200274\Debug\test.obj
^test.asm
C:\Users\Nashit\documents\visual studio 2015\Projects\K200274\K200274\Debug\test.obj
^test.asm
C:\Users\Nashit\documents\visual studio 2015\Projects\K200274\K200274\Debug\test.obj
^test.asm
C:\Users\Nashit\documents\visual studio 2015\Projects\K200274\K200274\Debug\test.obj
^test.asm
C:\Users\Nashit\documents\visual studio 2015\Projects\K200274\K200274\Debug\test.obj
^test.asm
C:\Users\Nashit\documents\visual studio 2015\Projects\K200274\K200274\Debug\test.obj
^test.asm
C:\Users\Nashit\documents\visual studio 2015\Projects\K200274\K200274\Debug\test.obj
^test.asm
C:\Users\Nashit\documents\visual studio 2015\Projects\K200274\K200274\Debug\test.obj
^test.asm
C:\Users\Nashit\documents\visual studio 2015\Projects\K200274\K200274\Debug\test.obj
^test.asm
C:\Users\Nashit\documents\visual studio 2015\Projects\K200274\K200274\Debug\test.obj
^test.asm
C:\Users\Nashit\documents\visual studio 2015\Projects\K200274\K200274\Debug\test.obj
^test.asm
C:\Users\Nashit\documents\visual studio 2015\Projects\K200274\K200274\Debug\test.obj
^test.asm
C:\Users\Nashit\documents\visual studio 2015\Projects\K200274\K200274\Debug\test.obj
^test.asm
C:\Users\Nashit\documents\visual studio 2015\Projects\K200274\K200274\Debug\test.obj
^test.asm
C:\Users\Nashit\documents\visual studio 2015\Projects\K200274\K200274\Debug\test.obj
^test.asm
C:\Users\Nashit\documents\visual studio 2015\Projects\K200274\K200274\Debug\test.obj
^test.asm
C:\Users\Nashit\documents\visual studio 2015\Projects\K200274\K200274\Debug\test.obj
^test.asm
C:\Users\Nashit\documents\visual studio 2015\Projects\K200274\K200274\Debug\test.obj
^test.asm
C:\Users\Nashit\documents\visual studio 2015\Projects\K200274\K200274\Debug\test.obj
^test.asm
C:\Users\Nashit\documents\visual studio 2015\Projects\K200274\K200274\Debug\test.obj
^test.asm
C:\Users\Nashit\documents\visual studio 2015\Projects\K200274\K200274\Debug\test.obj
^test.asm
C:\Users\Nashit\documents\visual studio 2015\Projects\K200274\K200274\Debug\test.obj
^test.asm
C:\Users\Nashit\documents\visual studio 2015\Projects\K200274\K200274\Debug\test.obj
^test.asm
C:\Users\Nashit\documents\visual studio 2015\Projects\K200274\K200274\Debug\test.obj
^test.asm
C:\Users\Nashit\documents\visual studio 2015\Projects\K200274\K200274\Debug\test.obj
^test.asm
C:\Users\Nashit\documents\visual studio 2015\Projects\K200274\K200274\Debug\test.obj
^test.asm
C:\Users\Nashit\documents\visual studio 2015\Projects\K200274\K200274\Debug\test.obj
^test.asm
C:\Users\Nashit\documents\visual studio 2015\Projects\K200274\K200274\Debug\test.obj
^test.asm
C:\Users\Nashit\documents\visual studio 2015\Projects\K200274\K200274\Debug\test.obj
^test.asm
C:\Users\Nashit\documents\visual studio 2015\Projects\K200274\K200274\Debug\test.obj
^test.asm
C:\Users\Nashit\documents\visual studio 2015\Projects\K200274\K200274\Debug\test.obj
^test.asm
C:\Users\Nashit\documents\visual studio 2015\Projects\K200274\K200274\Debug\test.obj
^test.asm
C:\Users\Nashit\documents\visual studio 2015\Projects\K200274\K200274\Debug\test.obj
^test.asm
C:\Users\Nashit\documents\visual studio 2015\Projects\K200274\K200274\Debug\test.obj
^test.asm
C:\Users\Nashit\documents\visual studio 2015\Projects\K200274\K200274\Debug\test.obj
^test.asm
C:\Users\Nashit\documents\visual studio 2015\Projects\K200274\K200274\Debug\test.obj
^test.asm
C:\Users\Nashit\documents\visual studio 2015\Projects\K200274\K200274\Debug\test.obj
^test.asm
C:\Users\Nashit\documents\visual studio 2015\Projects\K200274\K200274\Debug\test.obj
^test.asm
C:\Users\Nashit\documents\visual studio 2015\Projects\K200274\K200274\Debug\test.obj
^test.asm
C:\Users\Nashit\documents\visual studio 2015\Projects\K200274\K200274\Debug\test.obj
^test.asm
C:\Users\Nashit\documents\visual studio 2015\Projects\K200274\K200274\Debug\test.obj
^test.asm
C:\Users\Nashit\documents\visual studio 2015\Projects\K200274\K200274\Debug\test.obj
^test.asm
C:\Users\Nashit\documents\visual studio 2015\Projects\K200274\K200274\Debug\test.obj
^test.asm
C:\Users\Nashit\documents\visual studio 2015\Projects\K200274\K200274\Debug\test.obj
^test.asm
C:\Users\Nashit\documents\visual studio 2015\Projects\K200274\K200274\Debug\test.obj
^test.asm
C:\Users\Nashit\documents\visual studio 2015\Projects\K200274\K200274\Debug\test.obj
^test.asm
C:\Users\Nashit\documents\visual studio 2015\Projects\K200274\K200274\Debug\test.obj
^test.asm
C:\Users\Nashit\documents\visual studio 2015\Projects\K200274\K200274\Debug\test.obj
^test.asm
C:\Users\Nashit\Documents\Visual Studio 2015\Projects\K200274\K200274\Debug\test.obj
^test.asm
C:\Users\Nashit\Documents\Visual Studio 2015\Projects\K200274\K200274\Debug\test.obj
^test.asm
C:\Users\Nashit\Documents\Visual Studio 2015\Projects\K200274\K200274\Debug\test.obj
^test.asm
C:\Users\Nashit\Documents\Visual Studio 2015\Projects\K200274\K200274\Debug\test.obj
^test.asm
C:\Users\Nashit\Documents\Visual Studio 2015\Projects\K200274\K200274\Debug\test.obj
^test.asm
C:\Users\Nashit\Documents\Visual Studio 2015\Projects\K200274\K200274\Debug\test.obj
^test.asm
C:\Users\Nashit\Documents\Visual Studio 2015\Projects\K200274\K200274\Debug\test.obj
^test.asm
C:\Users\Nashit\Documents\Visual Studio 2015\Projects\K200274\K200274\Debug\test.obj
^test.asm
C:\Users\Nashit\Documents\Visual Studio 2015\Projects\K200274\K200274\Debug\test.obj
^test.asm
C:\Users\Nashit\Documents\Visual Studio 2015\Projects\K200274\K200274\Debug\test.obj
^test.asm
C:\Users\Nashit\Documents\Visual Studio 2015\Projects\K200274\K200274\Debug\test.obj
^test.asm
C:\Users\Nashit\Documents\Visual Studio 2015\Projects\K200274\K200274\Debug\test.obj
^test.asm
C:\Users\Nashit\Documents\Visual Studio 2015\Projects\K200274\K200274\Debug\test.obj
^test.asm
C:\Users\Nashit\Documents\Visual Studio 2015\Projects\K200274\K200274\Debug\test.obj
^test.asm
C:\Users\Nashit\Documents\Visual Studio 2015\Projects\K200274\K200274\Debug\test.obj
^test.asm
C:\Users\Nashit\Documents\Visual Studio 2015\Projects\K200274\K200274\Debug\test.obj
^test.asm
C:\Users\Nashit\Documents\Visual Studio 2015\Projects\K200274\K200274\Debug\test.obj
^test.asm
C:\Users\Nashit\Documents\Visual Studio 2015\Projects\K200274\K200274\Debug\test.obj
^test.asm
C:\Users\Nashit\Documents\Visual Studio 2015\Projects\K200274\K200274\Debug\test.obj
^test.asm
C:\Users\Nashit\Documents\Visual Studio 2015\Projects\K200274\K200274\Debug\test.obj
^test.asm
C:\Users\Nashit\Documents\Visual Studio 2015\Projects\K200274\K200274\Debug\test.obj
^test.asm
C:\Users\Nashit\Documents\Visual Studio 2015\Projects\K200274\K200274\Debug\test.obj
^test.asm
C:\Users\Nashit\Documents\Visual Studio 2015\Projects\K200274\K200274\Debug\test.obj
^test.asm
C:\Users\Nashit\Documents\Visual Studio 2015\Projects\K200274\K200274\Debug\test.obj
^test.asm
C:\Users\Nashit\Documents\Visual Studio 2015\Projects\K200274\K200274\Debug\test.obj
^test.asm
C:\Users\Nashit\Documents\Visual Studio 2015\Projects\K200274\K200274\Debug\test.obj
^test.asm
C:\Users\Nashit\Documents\Visual Studio 2015\Projects\K200274\K200274\Debug\test.obj
^test.asm
C:\Users\Nashit\Documents\Visual Studio 2015\Projects\K200274\K200274\Debug\test.obj
^test.asm
C:\Users\Nashit\Documents\Visual Studio 2015\Projects\K200274\K200274\Debug\test.obj
^test.asm
C:\Users\Nashit\Documents\Visual Studio 2015\Projects\K200274\K200274\Debug\test.obj
^test.asm
C:\Users\Nashit\Documents\Visual Studio 2015\Projects\K200274\K200274\Debug\test.obj
^test.asm
C:\Users\Nashit\Documents\Visual Studio 2015\Projects\K200274\K200274\Debug\test.obj
